Empirical Analysis of Bank Marketing Success through Machine Learning
…
\(euribor3m\): daily 3 month euro rate

\(nr\_employed\): quarterly average of the total number of employed citizens

\(y\): has the client subscribed a term deposit?

Missing values check

bank %>%
  summarise(across(everything(), ~ sum(is.na(.)))) %>%
  pivot_longer(everything(), names_to = "variable", values_to = "missing_count") %>%
  arrange(desc(missing_count))

# A tibble: 21 × 2
   variable    missing_count
   <chr>               <int>
 1 age                     0
 2 job                     0
 3 marital                 0
 4 education               0
 5 default                 0
 6 housing                 0
 7 loan                    0
 8 contact                 0
 9 month                   0
10 day_of_week             0
# ℹ 11 more rows
…
